
_-_-_-_-_-_-_-_-_-_-_-_-_-_-_-_-_-_-_-_-_-_
REPORTE ARCHIVO SMALL CON DISTANCIA 100
_-_-_-_-_-_-_-_-_-_-_-_-_-_-_-_-_-_-_-_-_-_ 
 el digrafo model.data_structures.DiGraph@5387f9e0
 con una cantidad de vertices V 128 
 con cantidad de arcos 901 
 en un radio 100
 
  _-_-_-_-_-_-_-_-_-_-_-_-_-_-_-_-_-_-_-_-_-_
REPORTE ARCHIVO SMALL CON DISTANCIA 250
_-_-_-_-_-_-_-_-_-_-_-_-_-_-_-_-_-_-_-_-_-_ 
 el digrafo model.data_structures.DiGraph@5387f9e0
 con una cantidad de vertices V 124 
 con cantidad de arcos 868 
 en un radio 250.0
 
 _-_-_-_-_-_-_-_-_-_-_-_-_-_-_-_-_-_-_-_-_-_
REPORTE ARCHIVO SMALL CON DISTANCIA 500
_-_-_-_-_-_-_-_-_-_-_-_-_-_-_-_-_-_-_-_-_-_ 
 el digrafo model.data_structures.DiGraph@5387f9e0
 con una cantidad de vertices V 111
 con cantidad de arcos 688 
 en un radio 500
 
 _-_-_-_-_-_-_-_-_-_-_-_-_-_-_-_-_-_-_-_-_-_
REPORTE ARCHIVO SMALL CON DISTANCIA 750
_-_-_-_-_-_-_-_-_-_-_-_-_-_-_-_-_-_-_-_-_-_ 
 el digrafo model.data_structures.DiGraph@5387f9e0
 con una cantidad de vertices V 100 
 con cantidad de arcos 566 
 en un radio 750.0